{
  "configVersion": 2,
  "packages": [
    {
      "name": "_fe_analyzer_shared",
      "rootUri": "file:///C:/flutter/.pub-cache/hosted/pub.dartlang.org/_fe_analyzer_shared-31.0.0",
      "packageUri": "lib/",
      "languageVersion": "2.12"
    },
    {
      "name": "analyzer",
      "rootUri": "file:///C:/flutter/.pub-cache/hosted/pub.dartlang.org/analyzer-2.8.0",
      "packageUri": "lib/",
      "languageVersion": "2.14"
    },
    {
      "name": "args",
      "rootUri": "file:///C:/flutter/.pub-cache/hosted/pub.dartlang.org/args-2.3.0",
      "packageUri": "lib/",
      "languageVersion": "2.12"
    },
    {
      "name": "async",
      "rootUri": "file:///C:/flutter/.pub-cache/hosted/pub.dartlang.org/async-2.8.2",
      "packageUri": "lib/",
      "languageVersion": "2.12"
    },
    {
      "name": "bloc",
      "rootUri": "file:///C:/flutter/.pub-cache/hosted/pub.dartlang.org/bloc-8.0.2",
      "packageUri": "lib/",
      "languageVersion": "2.12"
    },
    {
      "name": "bloc_test",
      "rootUri": "file:///C:/flutter/.pub-cache/hosted/pub.dartlang.org/bloc_test-9.0.2",
      "packageUri": "lib/",
      "languageVersion": "2.12"
    },
    {
      "name": "boolean_selector",
      "rootUri": "file:///C:/flutter/.pub-cache/hosted/pub.dartlang.org/boolean_selector-2.1.0",
      "packageUri": "lib/",
      "languageVersion": "2.12"
    },
    {
      "name": "build",
      "rootUri": "file:///C:/flutter/.pub-cache/hosted/pub.dartlang.org/build-2.2.1",
      "packageUri": "lib/",
      "languageVersion": "2.14"
    },
    {
      "name": "built_collection",
      "rootUri": "file:///C:/flutter/.pub-cache/hosted/pub.dartlang.org/built_collection-5.1.1",
      "packageUri": "lib/",
      "languageVersion": "2.12"
    },
    {
      "name": "built_value",
      "rootUri": "file:///C:/flutter/.pub-cache/hosted/pub.dartlang.org/built_value-8.1.4",
      "packageUri": "lib/",
      "languageVersion": "2.12"
    },
    {
      "name": "characters",
      "rootUri": "file:///C:/flutter/.pub-cache/hosted/pub.dartlang.org/characters-1.2.0",
      "packageUri": "lib/",
      "languageVersion": "2.12"
    },
    {
      "name": "charcode",
      "rootUri": "file:///C:/flutter/.pub-cache/hosted/pub.dartlang.org/charcode-1.3.1",
      "packageUri": "lib/",
      "languageVersion": "2.12"
    },
    {
      "name": "cli_util",
      "rootUri": "file:///C:/flutter/.pub-cache/hosted/pub.dartlang.org/cli_util-0.3.5",
      "packageUri": "lib/",
      "languageVersion": "2.12"
    },
    {
      "name": "clock",
      "rootUri": "file:///C:/flutter/.pub-cache/hosted/pub.dartlang.org/clock-1.1.0",
      "packageUri": "lib/",
      "languageVersion": "2.12"
    },
    {
      "name": "code_builder",
      "rootUri": "file:///C:/flutter/.pub-cache/hosted/pub.dartlang.org/code_builder-4.1.0",
      "packageUri": "lib/",
      "languageVersion": "2.12"
    },
    {
      "name": "collection",
      "rootUri": "file:///C:/flutter/.pub-cache/hosted/pub.dartlang.org/collection-1.15.0",
      "packageUri": "lib/",
      "languageVersion": "2.12"
    },
    {
      "name": "convert",
      "rootUri": "file:///C:/flutter/.pub-cache/hosted/pub.dartlang.org/convert-3.0.1",
      "packageUri": "lib/",
      "languageVersion": "2.12"
    },
    {
      "name": "coverage",
      "rootUri": "file:///C:/flutter/.pub-cache/hosted/pub.dartlang.org/coverage-1.0.3",
      "packageUri": "lib/",
      "languageVersion": "2.12"
    },
    {
      "name": "crypto",
      "rootUri": "file:///C:/flutter/.pub-cache/hosted/pub.dartlang.org/crypto-3.0.1",
      "packageUri": "lib/",
      "languageVersion": "2.12"
    },
    {
      "name": "cupertino_icons",
      "rootUri": "file:///C:/flutter/.pub-cache/hosted/pub.dartlang.org/cupertino_icons-1.0.4",
      "packageUri": "lib/",
      "languageVersion": "2.12"
    },
    {
      "name": "dart_style",
      "rootUri": "file:///C:/flutter/.pub-cache/hosted/pub.dartlang.org/dart_style-2.2.1",
      "packageUri": "lib/",
      "languageVersion": "2.12"
    },
    {
      "name": "diff_match_patch",
      "rootUri": "file:///C:/flutter/.pub-cache/hosted/pub.dartlang.org/diff_match_patch-0.4.1",
      "packageUri": "lib/",
      "languageVersion": "2.12"
    },
    {
      "name": "dio",
      "rootUri": "file:///C:/flutter/.pub-cache/hosted/pub.dartlang.org/dio-4.0.4",
      "packageUri": "lib/",
      "languageVersion": "2.12"
    },
    {
      "name": "equatable",
      "rootUri": "file:///C:/flutter/.pub-cache/hosted/pub.dartlang.org/equatable-2.0.3",
      "packageUri": "lib/",
      "languageVersion": "2.12"
    },
    {
      "name": "fake_async",
      "rootUri": "file:///C:/flutter/.pub-cache/hosted/pub.dartlang.org/fake_async-1.2.0",
      "packageUri": "lib/",
      "languageVersion": "2.12"
    },
    {
      "name": "ffi",
      "rootUri": "file:///C:/flutter/.pub-cache/hosted/pub.dartlang.org/ffi-1.1.2",
      "packageUri": "lib/",
      "languageVersion": "2.12"
    },
    {
      "name": "file",
      "rootUri": "file:///C:/flutter/.pub-cache/hosted/pub.dartlang.org/file-6.1.2",
      "packageUri": "lib/",
      "languageVersion": "2.12"
    },
    {
      "name": "fixnum",
      "rootUri": "file:///C:/flutter/.pub-cache/hosted/pub.dartlang.org/fixnum-1.0.0",
      "packageUri": "lib/",
      "languageVersion": "2.12"
    },
    {
      "name": "flutter",
      "rootUri": "file:///C:/flutter/packages/flutter",
      "packageUri": "lib/",
      "languageVersion": "2.12"
    },
    {
      "name": "flutter_bloc",
      "rootUri": "file:///C:/flutter/.pub-cache/hosted/pub.dartlang.org/flutter_bloc-8.0.1",
      "packageUri": "lib/",
      "languageVersion": "2.12"
    },
    {
      "name": "flutter_screenutil",
      "rootUri": "file:///C:/flutter/.pub-cache/hosted/pub.dartlang.org/flutter_screenutil-5.1.1",
      "packageUri": "lib/",
      "languageVersion": "2.12"
    },
    {
      "name": "flutter_test",
      "rootUri": "file:///C:/flutter/packages/flutter_test",
      "packageUri": "lib/",
      "languageVersion": "2.12"
    },
    {
      "name": "flutter_web_plugins",
      "rootUri": "file:///C:/flutter/packages/flutter_web_plugins",
      "packageUri": "lib/",
      "languageVersion": "2.12"
    },
    {
      "name": "fluttertoast",
      "rootUri": "file:///C:/flutter/.pub-cache/hosted/pub.dartlang.org/fluttertoast-8.0.8",
      "packageUri": "lib/",
      "languageVersion": "2.12"
    },
    {
      "name": "frontend_server_client",
      "rootUri": "file:///C:/flutter/.pub-cache/hosted/pub.dartlang.org/frontend_server_client-2.1.2",
      "packageUri": "lib/",
      "languageVersion": "2.12"
    },
    {
      "name": "glob",
      "rootUri": "file:///C:/flutter/.pub-cache/hosted/pub.dartlang.org/glob-2.0.2",
      "packageUri": "lib/",
      "languageVersion": "2.14"
    },
    {
      "name": "http_multi_server",
      "rootUri": "file:///C:/flutter/.pub-cache/hosted/pub.dartlang.org/http_multi_server-3.0.1",
      "packageUri": "lib/",
      "languageVersion": "2.12"
    },
    {
      "name": "http_parser",
      "rootUri": "file:///C:/flutter/.pub-cache/hosted/pub.dartlang.org/http_parser-4.0.0",
      "packageUri": "lib/",
      "languageVersion": "2.12"
    },
    {
      "name": "io",
      "rootUri": "file:///C:/flutter/.pub-cache/hosted/pub.dartlang.org/io-1.0.3",
      "packageUri": "lib/",
      "languageVersion": "2.12"
    },
    {
      "name": "js",
      "rootUri": "file:///C:/flutter/.pub-cache/hosted/pub.dartlang.org/js-0.6.3",
      "packageUri": "lib/",
      "languageVersion": "2.12"
    },
    {
      "name": "logging",
      "rootUri": "file:///C:/flutter/.pub-cache/hosted/pub.dartlang.org/logging-1.0.2",
      "packageUri": "lib/",
      "languageVersion": "2.12"
    },
    {
      "name": "matcher",
      "rootUri": "file:///C:/flutter/.pub-cache/hosted/pub.dartlang.org/matcher-0.12.11",
      "packageUri": "lib/",
      "languageVersion": "2.12"
    },
    {
      "name": "meta",
      "rootUri": "file:///C:/flutter/.pub-cache/hosted/pub.dartlang.org/meta-1.7.0",
      "packageUri": "lib/",
      "languageVersion": "2.12"
    },
    {
      "name": "mime",
      "rootUri": "file:///C:/flutter/.pub-cache/hosted/pub.dartlang.org/mime-1.0.1",
      "packageUri": "lib/",
      "languageVersion": "2.12"
    },
    {
      "name": "mockito",
      "rootUri": "file:///C:/flutter/.pub-cache/hosted/pub.dartlang.org/mockito-5.0.17",
      "packageUri": "lib/",
      "languageVersion": "2.12"
    },
    {
      "name": "mocktail",
      "rootUri": "file:///C:/flutter/.pub-cache/hosted/pub.dartlang.org/mocktail-0.2.0",
      "packageUri": "lib/",
      "languageVersion": "2.12"
    },
    {
      "name": "nested",
      "rootUri": "file:///C:/flutter/.pub-cache/hosted/pub.dartlang.org/nested-1.0.0",
      "packageUri": "lib/",
      "languageVersion": "2.12"
    },
    {
      "name": "node_preamble",
      "rootUri": "file:///C:/flutter/.pub-cache/hosted/pub.dartlang.org/node_preamble-2.0.1",
      "packageUri": "lib/",
      "languageVersion": "2.12"
    },
    {
      "name": "package_config",
      "rootUri": "file:///C:/flutter/.pub-cache/hosted/pub.dartlang.org/package_config-2.0.2",
      "packageUri": "lib/",
      "languageVersion": "2.12"
    },
    {
      "name": "path",
      "rootUri": "file:///C:/flutter/.pub-cache/hosted/pub.dartlang.org/path-1.8.0",
      "packageUri": "lib/",
      "languageVersion": "2.12"
    },
    {
      "name": "path_provider",
      "rootUri": "file:///C:/flutter/.pub-cache/hosted/pub.dartlang.org/path_provider-2.0.8",
      "packageUri": "lib/",
      "languageVersion": "2.14"
    },
    {
      "name": "path_provider_android",
      "rootUri": "file:///C:/flutter/.pub-cache/hosted/pub.dartlang.org/path_provider_android-2.0.11",
      "packageUri": "lib/",
      "languageVersion": "2.14"
    },
    {
      "name": "path_provider_ios",
      "rootUri": "file:///C:/flutter/.pub-cache/hosted/pub.dartlang.org/path_provider_ios-2.0.7",
      "packageUri": "lib/",
      "languageVersion": "2.14"
    },
    {
      "name": "path_provider_linux",
      "rootUri": "file:///C:/flutter/.pub-cache/hosted/pub.dartlang.org/path_provider_linux-2.1.5",
      "packageUri": "lib/",
      "languageVersion": "2.12"
    },
    {
      "name": "path_provider_macos",
      "rootUri": "file:///C:/flutter/.pub-cache/hosted/pub.dartlang.org/path_provider_macos-2.0.5",
      "packageUri": "lib/",
      "languageVersion": "2.12"
    },
    {
      "name": "path_provider_platform_interface",
      "rootUri": "file:///C:/flutter/.pub-cache/hosted/pub.dartlang.org/path_provider_platform_interface-2.0.3",
      "packageUri": "lib/",
      "languageVersion": "2.12"
    },
    {
      "name": "path_provider_windows",
      "rootUri": "file:///C:/flutter/.pub-cache/hosted/pub.dartlang.org/path_provider_windows-2.0.5",
      "packageUri": "lib/",
      "languageVersion": "2.12"
    },
    {
      "name": "pedantic",
      "rootUri": "file:///C:/flutter/.pub-cache/hosted/pub.dartlang.org/pedantic-1.11.1",
      "packageUri": "lib/",
      "languageVersion": "2.12"
    },
    {
      "name": "platform",
      "rootUri": "file:///C:/flutter/.pub-cache/hosted/pub.dartlang.org/platform-3.1.0",
      "packageUri": "lib/",
      "languageVersion": "2.12"
    },
    {
      "name": "plugin_platform_interface",
      "rootUri": "file:///C:/flutter/.pub-cache/hosted/pub.dartlang.org/plugin_platform_interface-2.1.2",
      "packageUri": "lib/",
      "languageVersion": "2.12"
    },
    {
      "name": "pool",
      "rootUri": "file:///C:/flutter/.pub-cache/hosted/pub.dartlang.org/pool-1.5.0",
      "packageUri": "lib/",
      "languageVersion": "2.12"
    },
    {
      "name": "pretty_dio_logger",
      "rootUri": "file:///C:/flutter/.pub-cache/hosted/pub.dartlang.org/pretty_dio_logger-1.2.0-beta-1",
      "packageUri": "lib/",
      "languageVersion": "2.12"
    },
    {
      "name": "process",
      "rootUri": "file:///C:/flutter/.pub-cache/hosted/pub.dartlang.org/process-4.2.4",
      "packageUri": "lib/",
      "languageVersion": "2.14"
    },
    {
      "name": "provider",
      "rootUri": "file:///C:/flutter/.pub-cache/hosted/pub.dartlang.org/provider-6.0.2",
      "packageUri": "lib/",
      "languageVersion": "2.12"
    },
    {
      "name": "pub_semver",
      "rootUri": "file:///C:/flutter/.pub-cache/hosted/pub.dartlang.org/pub_semver-2.1.0",
      "packageUri": "lib/",
      "languageVersion": "2.12"
    },
    {
      "name": "shared_preferences",
      "rootUri": "file:///C:/flutter/.pub-cache/hosted/pub.dartlang.org/shared_preferences-2.0.12",
      "packageUri": "lib/",
      "languageVersion": "2.14"
    },
    {
      "name": "shared_preferences_android",
      "rootUri": "file:///C:/flutter/.pub-cache/hosted/pub.dartlang.org/shared_preferences_android-2.0.10",
      "packageUri": "lib/",
      "languageVersion": "2.14"
    },
    {
      "name": "shared_preferences_ios",
      "rootUri": "file:///C:/flutter/.pub-cache/hosted/pub.dartlang.org/shared_preferences_ios-2.0.9",
      "packageUri": "lib/",
      "languageVersion": "2.14"
    },
    {
      "name": "shared_preferences_linux",
      "rootUri": "file:///C:/flutter/.pub-cache/hosted/pub.dartlang.org/shared_preferences_linux-2.0.4",
      "packageUri": "lib/",
      "languageVersion": "2.12"
    },
    {
      "name": "shared_preferences_macos",
      "rootUri": "file:///C:/flutter/.pub-cache/hosted/pub.dartlang.org/shared_preferences_macos-2.0.2",
      "packageUri": "lib/",
      "languageVersion": "2.12"
    },
    {
      "name": "shared_preferences_platform_interface",
      "rootUri": "file:///C:/flutter/.pub-cache/hosted/pub.dartlang.org/shared_preferences_platform_interface-2.0.0",
      "packageUri": "lib/",
      "languageVersion": "2.12"
    },
    {
      "name": "shared_preferences_web",
      "rootUri": "file:///C:/flutter/.pub-cache/hosted/pub.dartlang.org/shared_preferences_web-2.0.3",
      "packageUri": "lib/",
      "languageVersion": "2.12"
    },
    {
      "name": "shared_preferences_windows",
      "rootUri": "file:///C:/flutter/.pub-cache/hosted/pub.dartlang.org/shared_preferences_windows-2.0.4",
      "packageUri": "lib/",
      "languageVersion": "2.12"
    },
    {
      "name": "shelf",
      "rootUri": "file:///C:/flutter/.pub-cache/hosted/pub.dartlang.org/shelf-1.2.0",
      "packageUri": "lib/",
      "languageVersion": "2.12"
    },
    {
      "name": "shelf_packages_handler",
      "rootUri": "file:///C:/flutter/.pub-cache/hosted/pub.dartlang.org/shelf_packages_handler-3.0.0",
      "packageUri": "lib/",
      "languageVersion": "2.12"
    },
    {
      "name": "shelf_static",
      "rootUri": "file:///C:/flutter/.pub-cache/hosted/pub.dartlang.org/shelf_static-1.1.0",
      "packageUri": "lib/",
      "languageVersion": "2.12"
    },
    {
      "name": "shelf_web_socket",
      "rootUri": "file:///C:/flutter/.pub-cache/hosted/pub.dartlang.org/shelf_web_socket-1.0.1",
      "packageUri": "lib/",
      "languageVersion": "2.12"
    },
    {
      "name": "sky_engine",
      "rootUri": "file:///C:/flutter/bin/cache/pkg/sky_engine",
      "packageUri": "lib/",
      "languageVersion": "2.12"
    },
    {
      "name": "source_gen",
      "rootUri": "file:///C:/flutter/.pub-cache/hosted/pub.dartlang.org/source_gen-1.2.1",
      "packageUri": "lib/",
      "languageVersion": "2.12"
    },
    {
      "name": "source_map_stack_trace",
      "rootUri": "file:///C:/flutter/.pub-cache/hosted/pub.dartlang.org/source_map_stack_trace-2.1.0",
      "packageUri": "lib/",
      "languageVersion": "2.12"
    },
    {
      "name": "source_maps",
      "rootUri": "file:///C:/flutter/.pub-cache/hosted/pub.dartlang.org/source_maps-0.10.10",
      "packageUri": "lib/",
      "languageVersion": "2.12"
    },
    {
      "name": "source_span",
      "rootUri": "file:///C:/flutter/.pub-cache/hosted/pub.dartlang.org/source_span-1.8.1",
      "packageUri": "lib/",
      "languageVersion": "2.12"
    },
    {
      "name": "sqflite",
      "rootUri": "file:///C:/flutter/.pub-cache/hosted/pub.dartlang.org/sqflite-2.0.2",
      "packageUri": "lib/",
      "languageVersion": "2.12"
    },
    {
      "name": "sqflite_common",
      "rootUri": "file:///C:/flutter/.pub-cache/hosted/pub.dartlang.org/sqflite_common-2.2.0",
      "packageUri": "lib/",
      "languageVersion": "2.15"
    },
    {
      "name": "stack_trace",
      "rootUri": "file:///C:/flutter/.pub-cache/hosted/pub.dartlang.org/stack_trace-1.10.0",
      "packageUri": "lib/",
      "languageVersion": "2.12"
    },
    {
      "name": "stream_channel",
      "rootUri": "file:///C:/flutter/.pub-cache/hosted/pub.dartlang.org/stream_channel-2.1.0",
      "packageUri": "lib/",
      "languageVersion": "2.12"
    },
    {
      "name": "string_scanner",
      "rootUri": "file:///C:/flutter/.pub-cache/hosted/pub.dartlang.org/string_scanner-1.1.0",
      "packageUri": "lib/",
      "languageVersion": "2.12"
    },
    {
      "name": "synchronized",
      "rootUri": "file:///C:/flutter/.pub-cache/hosted/pub.dartlang.org/synchronized-3.0.0",
      "packageUri": "lib/",
      "languageVersion": "2.12"
    },
    {
      "name": "term_glyph",
      "rootUri": "file:///C:/flutter/.pub-cache/hosted/pub.dartlang.org/term_glyph-1.2.0",
      "packageUri": "lib/",
      "languageVersion": "2.12"
    },
    {
      "name": "test",
      "rootUri": "file:///C:/flutter/.pub-cache/hosted/pub.dartlang.org/test-1.17.12",
      "packageUri": "lib/",
      "languageVersion": "2.12"
    },
    {
      "name": "test_api",
      "rootUri": "file:///C:/flutter/.pub-cache/hosted/pub.dartlang.org/test_api-0.4.3",
      "packageUri": "lib/",
      "languageVersion": "2.12"
    },
    {
      "name": "test_core",
      "rootUri": "file:///C:/flutter/.pub-cache/hosted/pub.dartlang.org/test_core-0.4.2",
      "packageUri": "lib/",
      "languageVersion": "2.12"
    },
    {
      "name": "typed_data",
      "rootUri": "file:///C:/flutter/.pub-cache/hosted/pub.dartlang.org/typed_data-1.3.0",
      "packageUri": "lib/",
      "languageVersion": "2.12"
    },
    {
      "name": "vector_math",
      "rootUri": "file:///C:/flutter/.pub-cache/hosted/pub.dartlang.org/vector_math-2.1.1",
      "packageUri": "lib/",
      "languageVersion": "2.14"
    },
    {
      "name": "vm_service",
      "rootUri": "file:///C:/flutter/.pub-cache/hosted/pub.dartlang.org/vm_service-7.5.0",
      "packageUri": "lib/",
      "languageVersion": "2.12"
    },
    {
      "name": "watcher",
      "rootUri": "file:///C:/flutter/.pub-cache/hosted/pub.dartlang.org/watcher-1.0.1",
      "packageUri": "lib/",
      "languageVersion": "2.14"
    },
    {
      "name": "web_socket_channel",
      "rootUri": "file:///C:/flutter/.pub-cache/hosted/pub.dartlang.org/web_socket_channel-2.1.0",
      "packageUri": "lib/",
      "languageVersion": "2.12"
    },
    {
      "name": "webkit_inspection_protocol",
      "rootUri": "file:///C:/flutter/.pub-cache/hosted/pub.dartlang.org/webkit_inspection_protocol-1.0.0",
      "packageUri": "lib/",
      "languageVersion": "2.12"
    },
    {
      "name": "win32",
      "rootUri": "file:///C:/flutter/.pub-cache/hosted/pub.dartlang.org/win32-2.3.9",
      "packageUri": "lib/",
      "languageVersion": "2.15"
    },
    {
      "name": "xdg_directories",
      "rootUri": "file:///C:/flutter/.pub-cache/hosted/pub.dartlang.org/xdg_directories-0.2.0",
      "packageUri": "lib/",
      "languageVersion": "2.12"
    },
    {
      "name": "yaml",
      "rootUri": "file:///C:/flutter/.pub-cache/hosted/pub.dartlang.org/yaml-3.1.0",
      "packageUri": "lib/",
      "languageVersion": "2.12"
    },
    {
      "name": "majootestcase",
      "rootUri": "../",
      "packageUri": "lib/",
      "languageVersion": "2.12"
    }
  ],
  "generated": "2022-02-02T04:41:50.499553Z",
  "generator": "pub",
  "generatorVersion": "2.15.1"
}
